18:26:56.572 INFO - Selenium build info: version: '3.4.0', revision: 'unknown'
18:26:56.572 INFO - Launching a standalone Selenium Server
2017-08-18 18:26:56.650:INFO::main: Logging initialized @3902ms to org.seleniumhq.jetty9.util.log.StdErrLog
18:26:56.791 INFO - Driver class not found: com.opera.core.systems.OperaDriver
18:26:56.791 INFO - Driver provider com.opera.core.systems.OperaDriver registration is skipped:
Unable to create new instances on this machine.
18:26:56.791 INFO - Driver class not found: com.opera.core.systems.OperaDriver
18:26:56.791 INFO - Driver provider com.opera.core.systems.OperaDriver is not registered
18:26:56.791 INFO - Driver provider org.openqa.selenium.safari.SafariDriver registration is skipped:
 registration capabilities Capabilities [{browserName=safari, version=, platform=MAC}] does not match the current platform VISTA
2017-08-18 18:26:56.932:INFO:osjs.Server:main: jetty-9.4.3.v20170317
2017-08-18 18:26:57.010:INFO:osjsh.ContextHandler:main: Started o.s.j.s.ServletContextHandler@acaea5{/,null,AVAILABLE}
2017-08-18 18:26:57.275:INFO:osjs.AbstractConnector:main: Started ServerConnector@4bee09{HTTP/1.1,[http/1.1]}{0.0.0.0:5555}
2017-08-18 18:26:57.291:INFO:osjs.Server:main: Started @4533ms
18:26:57.291 INFO - Selenium Server is up and running
18:27:02.244 INFO - SessionCleaner initialized with insideBrowserTimeout 0 and clientGoneTimeout 1800000 polling every 180000
18:27:02.322 INFO - Executing: [new session: Capabilities [{acceptSslCerts=true, browserName=chrome, javascriptEnabled=true, platform=ANY}]])
18:27:02.541 INFO - Creating a new session for Capabilities [{acceptSslCerts=true, browserName=chrome, javascriptEnabled=true, platform=ANY}]
Starting ChromeDriver 2.29.461591 (62ebf098771772160f391d75e589dc567915b233) on port 17755
Only local connections are allowed.
18:27:18.426 INFO - Detected dialect: OSS
18:27:18.511 INFO - Done: [new session: Capabilities [{acceptSslCerts=true, browserName=chrome, javascriptEnabled=true, platform=ANY}]]
18:27:18.558 INFO - Executing: [maximise window])
18:27:18.780 INFO - Done: [maximise window]
18:27:18.796 INFO - Executing: [delete all cookies])
18:27:18.796 INFO - Done: [delete all cookies]
18:27:18.811 INFO - Executing: [get: http://usfkl13ws19v.mercer.com:91/webcf/])
18:27:57.562 INFO - Done: [get: http://usfkl13ws19v.mercer.com:91/webcf/]
18:27:57.609 INFO - Executing: [implicitly wait: 30000])
18:27:57.625 INFO - Done: [implicitly wait: 30000]
18:27:57.653 INFO - Executing: [find elements: By.cssSelector: body])
18:27:57.743 INFO - Done: [find elements: By.cssSelector: body]
18:27:57.757 INFO - Executing: [find child elements: 0 [[ChromeDriver: chrome on XP (34e53aef1e00fe6adb216b439ff4d6b5)] -> css selector: body], By.xpath: //span[contains(text(),'HUB')]])
18:27:57.890 INFO - Done: [find child elements: 0 [[ChromeDriver: chrome on XP (34e53aef1e00fe6adb216b439ff4d6b5)] -> css selector: body], By.xpath: //span[contains(text(),'HUB')]]
18:27:57.901 INFO - Executing: [is displayed: 1 [[[[ChromeDriver: chrome on XP (34e53aef1e00fe6adb216b439ff4d6b5)] -> css selector: body]] -> xpath: //span[contains(text(),'HUB')]]])
18:27:57.955 INFO - Done: [is displayed: 1 [[[[ChromeDriver: chrome on XP (34e53aef1e00fe6adb216b439ff4d6b5)] -> css selector: body]] -> xpath: //span[contains(text(),'HUB')]]]
18:27:57.971 INFO - Executing: [find elements: By.cssSelector: body])
18:27:57.998 INFO - Done: [find elements: By.cssSelector: body]
18:27:58.016 INFO - Executing: [find child elements: 0 [[ChromeDriver: chrome on XP (34e53aef1e00fe6adb216b439ff4d6b5)] -> css selector: body], By.xpath: //h1[contains(text(),'Client List')]])
18:28:00.041 INFO - Done: [find child elements: 0 [[ChromeDriver: chrome on XP (34e53aef1e00fe6adb216b439ff4d6b5)] -> css selector: body], By.xpath: //h1[contains(text(),'Client List')]]
18:28:00.051 INFO - Executing: [is displayed: 2 [[[[ChromeDriver: chrome on XP (34e53aef1e00fe6adb216b439ff4d6b5)] -> css selector: body]] -> xpath: //h1[contains(text(),'Client List')]]])
18:28:00.102 INFO - Done: [is displayed: 2 [[[[ChromeDriver: chrome on XP (34e53aef1e00fe6adb216b439ff4d6b5)] -> css selector: body]] -> xpath: //h1[contains(text(),'Client List')]]]
18:28:00.617 INFO - Executing: [is displayed: 2 [[[[ChromeDriver: chrome on XP (34e53aef1e00fe6adb216b439ff4d6b5)] -> css selector: body]] -> xpath: //h1[contains(text(),'Client List')]]])
18:28:00.692 INFO - Done: [is displayed: 2 [[[[ChromeDriver: chrome on XP (34e53aef1e00fe6adb216b439ff4d6b5)] -> css selector: body]] -> xpath: //h1[contains(text(),'Client List')]]]
18:28:00.700 INFO - Executing: [find elements: By.cssSelector: body])
18:28:00.735 INFO - Done: [find elements: By.cssSelector: body]
18:28:00.745 INFO - Executing: [find child elements: 0 [[ChromeDriver: chrome on XP (34e53aef1e00fe6adb216b439ff4d6b5)] -> css selector: body], By.cssSelector: tbody tr:nth-child(2) td a])
18:28:13.163 INFO - Done: [find child elements: 0 [[ChromeDriver: chrome on XP (34e53aef1e00fe6adb216b439ff4d6b5)] -> css selector: body], By.cssSelector: tbody tr:nth-child(2) td a]
18:28:13.215 INFO - Executing: [is displayed: 3 [[[[ChromeDriver: chrome on XP (34e53aef1e00fe6adb216b439ff4d6b5)] -> css selector: body]] -> css selector: tbody tr:nth-child(2) td a]])
18:28:13.278 INFO - Done: [is displayed: 3 [[[[ChromeDriver: chrome on XP (34e53aef1e00fe6adb216b439ff4d6b5)] -> css selector: body]] -> css selector: tbody tr:nth-child(2) td a]]
18:28:13.325 INFO - Executing: [find elements: By.cssSelector: body])
18:28:13.340 INFO - Done: [find elements: By.cssSelector: body]
18:28:13.356 INFO - Executing: [find child elements: 0 [[ChromeDriver: chrome on XP (34e53aef1e00fe6adb216b439ff4d6b5)] -> css selector: body], By.xpath: //input[@id='client-list-filter']])
18:28:13.403 INFO - Done: [find child elements: 0 [[ChromeDriver: chrome on XP (34e53aef1e00fe6adb216b439ff4d6b5)] -> css selector: body], By.xpath: //input[@id='client-list-filter']]
18:28:13.419 INFO - Executing: [is displayed: 4 [[[[ChromeDriver: chrome on XP (34e53aef1e00fe6adb216b439ff4d6b5)] -> css selector: body]] -> xpath: //input[@id='client-list-filter']]])
18:28:13.465 INFO - Done: [is displayed: 4 [[[[ChromeDriver: chrome on XP (34e53aef1e00fe6adb216b439ff4d6b5)] -> css selector: body]] -> xpath: //input[@id='client-list-filter']]]
18:28:13.465 INFO - Executing: [find element: By.cssSelector: body])
18:28:13.512 INFO - Done: [find element: By.cssSelector: body]
18:28:13.528 INFO - Executing: [find child element: 0 [[ChromeDriver: chrome on XP (34e53aef1e00fe6adb216b439ff4d6b5)] -> css selector: body], By.xpath: //input[@id='client-list-filter']])
18:28:13.575 INFO - Done: [find child element: 0 [[ChromeDriver: chrome on XP (34e53aef1e00fe6adb216b439ff4d6b5)] -> css selector: body], By.xpath: //input[@id='client-list-filter']]
18:28:13.590 INFO - Executing: [send keys: 4 [[[[ChromeDriver: chrome on XP (34e53aef1e00fe6adb216b439ff4d6b5)] -> css selector: body]] -> xpath: //input[@id='client-list-filter']], [M, B, C,  , Q, A,  , C, L, I, E, N, T,  , T, H, R, E, E]])
18:28:14.494 INFO - Done: [send keys: 4 [[[[ChromeDriver: chrome on XP (34e53aef1e00fe6adb216b439ff4d6b5)] -> css selector: body]] -> xpath: //input[@id='client-list-filter']], [M, B, C,  , Q, A,  , C, L, I, E, N, T,  , T, H, R, E, E]]
18:28:16.521 INFO - Executing: [find elements: By.cssSelector: body])
18:28:16.552 INFO - Done: [find elements: By.cssSelector: body]
18:28:16.552 INFO - Executing: [find child elements: 0 [[ChromeDriver: chrome on XP (34e53aef1e00fe6adb216b439ff4d6b5)] -> css selector: body], By.cssSelector: tbody tr:nth-child(2) td a])
18:28:16.584 INFO - Done: [find child elements: 0 [[ChromeDriver: chrome on XP (34e53aef1e00fe6adb216b439ff4d6b5)] -> css selector: body], By.cssSelector: tbody tr:nth-child(2) td a]
18:28:16.599 INFO - Executing: [is displayed: 5 [[[[ChromeDriver: chrome on XP (34e53aef1e00fe6adb216b439ff4d6b5)] -> css selector: body]] -> css selector: tbody tr:nth-child(2) td a]])
18:28:16.664 INFO - Done: [is displayed: 5 [[[[ChromeDriver: chrome on XP (34e53aef1e00fe6adb216b439ff4d6b5)] -> css selector: body]] -> css selector: tbody tr:nth-child(2) td a]]
18:28:16.664 INFO - Executing: [find element: By.cssSelector: body])
18:28:16.695 INFO - Done: [find element: By.cssSelector: body]
18:28:16.711 INFO - Executing: [find child element: 0 [[ChromeDriver: chrome on XP (34e53aef1e00fe6adb216b439ff4d6b5)] -> css selector: body], By.cssSelector: tbody tr:nth-child(2) td a])
18:28:16.773 INFO - Done: [find child element: 0 [[ChromeDriver: chrome on XP (34e53aef1e00fe6adb216b439ff4d6b5)] -> css selector: body], By.cssSelector: tbody tr:nth-child(2) td a]
18:28:16.773 INFO - Executing: [click: 5 [[[[ChromeDriver: chrome on XP (34e53aef1e00fe6adb216b439ff4d6b5)] -> css selector: body]] -> css selector: tbody tr:nth-child(2) td a]])
18:28:16.939 INFO - Done: [click: 5 [[[[ChromeDriver: chrome on XP (34e53aef1e00fe6adb216b439ff4d6b5)] -> css selector: body]] -> css selector: tbody tr:nth-child(2) td a]]
18:28:21.954 INFO - Executing: [find elements: By.cssSelector: body])
18:28:27.313 INFO - Done: [find elements: By.cssSelector: body]
18:28:27.326 INFO - Executing: [find child elements: 0 [[ChromeDriver: chrome on XP (34e53aef1e00fe6adb216b439ff4d6b5)] -> css selector: body], By.xpath: //h2[contains(text(),'Web Configuration')]])
18:28:27.825 INFO - Done: [find child elements: 0 [[ChromeDriver: chrome on XP (34e53aef1e00fe6adb216b439ff4d6b5)] -> css selector: body], By.xpath: //h2[contains(text(),'Web Configuration')]]
18:28:27.836 INFO - Executing: [is displayed: 6 [[[[ChromeDriver: chrome on XP (34e53aef1e00fe6adb216b439ff4d6b5)] -> css selector: body]] -> xpath: //h2[contains(text(),'Web Configuration')]]])
18:28:27.898 INFO - Done: [is displayed: 6 [[[[ChromeDriver: chrome on XP (34e53aef1e00fe6adb216b439ff4d6b5)] -> css selector: body]] -> xpath: //h2[contains(text(),'Web Configuration')]]]
18:28:28.418 INFO - Executing: [is displayed: 6 [[[[ChromeDriver: chrome on XP (34e53aef1e00fe6adb216b439ff4d6b5)] -> css selector: body]] -> xpath: //h2[contains(text(),'Web Configuration')]]])
18:28:28.489 INFO - Done: [is displayed: 6 [[[[ChromeDriver: chrome on XP (34e53aef1e00fe6adb216b439ff4d6b5)] -> css selector: body]] -> xpath: //h2[contains(text(),'Web Configuration')]]]
18:28:28.528 INFO - Executing: [find elements: By.cssSelector: body])
18:28:28.562 INFO - Done: [find elements: By.cssSelector: body]
18:28:28.582 INFO - Executing: [find child elements: 0 [[ChromeDriver: chrome on XP (34e53aef1e00fe6adb216b439ff4d6b5)] -> css selector: body], By.xpath: //li[3]/a[contains(text(),'Client Settings')]])
18:28:28.630 INFO - Done: [find child elements: 0 [[ChromeDriver: chrome on XP (34e53aef1e00fe6adb216b439ff4d6b5)] -> css selector: body], By.xpath: //li[3]/a[contains(text(),'Client Settings')]]
18:28:28.639 INFO - Executing: [is displayed: 7 [[[[ChromeDriver: chrome on XP (34e53aef1e00fe6adb216b439ff4d6b5)] -> css selector: body]] -> xpath: //li[3]/a[contains(text(),'Client Settings')]]])
18:28:28.697 INFO - Done: [is displayed: 7 [[[[ChromeDriver: chrome on XP (34e53aef1e00fe6adb216b439ff4d6b5)] -> css selector: body]] -> xpath: //li[3]/a[contains(text(),'Client Settings')]]]
18:28:28.713 INFO - Executing: [find element: By.cssSelector: body])
18:28:28.750 INFO - Done: [find element: By.cssSelector: body]
18:28:28.762 INFO - Executing: [find child element: 0 [[ChromeDriver: chrome on XP (34e53aef1e00fe6adb216b439ff4d6b5)] -> css selector: body], By.xpath: //li[3]/a[contains(text(),'Client Settings')]])
18:28:28.831 INFO - Done: [find child element: 0 [[ChromeDriver: chrome on XP (34e53aef1e00fe6adb216b439ff4d6b5)] -> css selector: body], By.xpath: //li[3]/a[contains(text(),'Client Settings')]]
18:28:28.835 INFO - Executing: [click: 7 [[[[ChromeDriver: chrome on XP (34e53aef1e00fe6adb216b439ff4d6b5)] -> css selector: body]] -> xpath: //li[3]/a[contains(text(),'Client Settings')]]])
18:28:29.064 INFO - Done: [click: 7 [[[[ChromeDriver: chrome on XP (34e53aef1e00fe6adb216b439ff4d6b5)] -> css selector: body]] -> xpath: //li[3]/a[contains(text(),'Client Settings')]]]
18:28:29.087 INFO - Executing: [find elements: By.cssSelector: body])
18:28:29.132 INFO - Done: [find elements: By.cssSelector: body]
18:28:29.141 INFO - Executing: [find child elements: 0 [[ChromeDriver: chrome on XP (34e53aef1e00fe6adb216b439ff4d6b5)] -> css selector: body], By.xpath: //a[contains(text(),'Visibility Date Client Configuration')]])
18:28:30.499 INFO - Done: [find child elements: 0 [[ChromeDriver: chrome on XP (34e53aef1e00fe6adb216b439ff4d6b5)] -> css selector: body], By.xpath: //a[contains(text(),'Visibility Date Client Configuration')]]
18:28:30.507 INFO - Executing: [is displayed: 8 [[[[ChromeDriver: chrome on XP (34e53aef1e00fe6adb216b439ff4d6b5)] -> css selector: body]] -> xpath: //a[contains(text(),'Visibility Date Client Configuration')]]])
18:28:30.579 INFO - Done: [is displayed: 8 [[[[ChromeDriver: chrome on XP (34e53aef1e00fe6adb216b439ff4d6b5)] -> css selector: body]] -> xpath: //a[contains(text(),'Visibility Date Client Configuration')]]]
18:28:31.093 INFO - Executing: [is displayed: 8 [[[[ChromeDriver: chrome on XP (34e53aef1e00fe6adb216b439ff4d6b5)] -> css selector: body]] -> xpath: //a[contains(text(),'Visibility Date Client Configuration')]]])
18:28:31.202 INFO - Done: [is displayed: 8 [[[[ChromeDriver: chrome on XP (34e53aef1e00fe6adb216b439ff4d6b5)] -> css selector: body]] -> xpath: //a[contains(text(),'Visibility Date Client Configuration')]]]
18:28:31.221 INFO - Executing: [find element: By.cssSelector: body])
18:28:31.262 INFO - Done: [find element: By.cssSelector: body]
18:28:31.277 INFO - Executing: [find child element: 0 [[ChromeDriver: chrome on XP (34e53aef1e00fe6adb216b439ff4d6b5)] -> css selector: body], By.xpath: //a[contains(text(),'Visibility Date Client Configuration')]])
18:28:31.337 INFO - Done: [find child element: 0 [[ChromeDriver: chrome on XP (34e53aef1e00fe6adb216b439ff4d6b5)] -> css selector: body], By.xpath: //a[contains(text(),'Visibility Date Client Configuration')]]
18:28:31.344 INFO - Executing: [click: 8 [[[[ChromeDriver: chrome on XP (34e53aef1e00fe6adb216b439ff4d6b5)] -> css selector: body]] -> xpath: //a[contains(text(),'Visibility Date Client Configuration')]]])
18:28:32.718 WARN - Exception thrown
org.openqa.selenium.WebDriverException: unknown error: Element <a id="ui-id-3" tabindex="-1" role="presentation" class="ui-tabs-anchor" href="#visibility">...</a> is not clickable at point (429, 315). Other element would receive the click: <div class="blockUI blockOverlay" style="z-index: 1000; border: none; margin: 0px; padding: 0px; width: 100%; height: 100%; top: 0px; left: 0px; background-color: rgb(0, 0, 0); opacity: 0.4; cursor: wait; position: fixed;"></div>
  (Session info: chrome=60.0.3112.101)
  (Driver info: chromedriver=2.29.461591 (62ebf098771772160f391d75e589dc567915b233),platform=Windows NT 6.1.7601 SP1 x86_64) (WARNING: The server did not provide any stacktrace information)
Command duration or timeout: 175 milliseconds
Build info: version: '3.4.0', revision: 'unknown', time: 'unknown'
System info: host: 'USDLSEVDIF00824', ip: '10.23.123.228', os.name: 'Windows 7', os.arch: 'x86', os.version: '6.1', java.version: '1.8.0_92'
Driver info: org.openqa.selenium.chrome.ChromeDriver
Capabilities [{applicationCacheEnabled=false, rotatable=false, mobileEmulationEnabled=false, networkConnectionEnabled=false, chrome={chromedriverVersion=2.29.461591 (62ebf098771772160f391d75e589dc567915b233), userDataDir=C:\Users\SUBHAJ~1\AppData\Local\Temp\scoped_dir11428_18372}, takesHeapSnapshot=true, pageLoadStrategy=normal, databaseEnabled=false, handlesAlerts=true, hasTouchScreen=false, version=60.0.3112.101, platform=XP, browserConnectionEnabled=false, nativeEvents=true, acceptSslCerts=true, locationContextEnabled=true, webStorageEnabled=true, browserName=chrome, takesScreenshot=true, javascriptEnabled=true, cssSelectorsEnabled=true, unexpectedAlertBehaviour=}]
Session ID: 34e53aef1e00fe6adb216b439ff4d6b5
	at sun.reflect.NativeConstructorAccessorImpl.newInstance0(Native Method)
	at sun.reflect.NativeConstructorAccessorImpl.newInstance(Unknown Source)
	at sun.reflect.DelegatingConstructorAccessorImpl.newInstance(Unknown Source)
	at java.lang.reflect.Constructor.newInstance(Unknown Source)
	at org.openqa.selenium.remote.ErrorHandler.createThrowable(ErrorHandler.java:215)
	at org.openqa.selenium.remote.ErrorHandler.throwIfResponseFailed(ErrorHandler.java:167)
	at org.openqa.selenium.remote.RemoteWebDriver.execute(RemoteWebDriver.java:671)
	at org.openqa.selenium.remote.RemoteWebElement.execute(RemoteWebElement.java:272)
	at org.openqa.selenium.remote.RemoteWebElement.click(RemoteWebElement.java:82)
	at sun.reflect.NativeMethodAccessorImpl.invoke0(Native Method)
	at sun.reflect.NativeMethodAccessorImpl.invoke(Unknown Source)
	at sun.reflect.DelegatingMethodAccessorImpl.invoke(Unknown Source)
	at java.lang.reflect.Method.invoke(Unknown Source)
	at org.openqa.selenium.support.events.EventFiringWebDriver$EventFiringWebElement$1.invoke(EventFiringWebDriver.java:332)
	at com.sun.proxy.$Proxy5.click(Unknown Source)
	at org.openqa.selenium.support.events.EventFiringWebDriver$EventFiringWebElement.click(EventFiringWebDriver.java:345)
	at sun.reflect.NativeMethodAccessorImpl.invoke0(Native Method)
	at sun.reflect.NativeMethodAccessorImpl.invoke(Unknown Source)
	at sun.reflect.DelegatingMethodAccessorImpl.invoke(Unknown Source)
	at java.lang.reflect.Method.invoke(Unknown Source)
	at org.openqa.selenium.remote.server.KnownElements$1.invoke(KnownElements.java:64)
	at com.sun.proxy.$Proxy6.click(Unknown Source)
	at org.openqa.selenium.remote.server.handler.ClickElement.call(ClickElement.java:30)
	at org.openqa.selenium.remote.server.handler.ClickElement.call(ClickElement.java:22)
	at java.util.concurrent.FutureTask.run(Unknown Source)
	at org.openqa.selenium.remote.server.DefaultSession$1.run(DefaultSession.java:176)
	at java.util.concurrent.ThreadPoolExecutor.runWorker(Unknown Source)
	at java.util.concurrent.ThreadPoolExecutor$Worker.run(Unknown Source)
	at java.lang.Thread.run(Unknown Source)
18:28:32.725 WARN - Exception: unknown error: Element <a id="ui-id-3" tabindex="-1" role="presentation" class="ui-tabs-anchor" href="#visibility">...</a> is not clickable at point (429, 315). Other element would receive the click: <div class="blockUI blockOverlay" style="z-index: 1000; border: none; margin: 0px; padding: 0px; width: 100%; height: 100%; top: 0px; left: 0px; background-color: rgb(0, 0, 0); opacity: 0.4; cursor: wait; position: fixed;"></div>
  (Session info: chrome=60.0.3112.101)
  (Driver info: chromedriver=2.29.461591 (62ebf098771772160f391d75e589dc567915b233),platform=Windows NT 6.1.7601 SP1 x86_64) (WARNING: The server did not provide any stacktrace information)
Command duration or timeout: 175 milliseconds
Build info: version: '3.4.0', revision: 'unknown', time: 'unknown'
System info: host: 'USDLSEVDIF00824', ip: '10.23.123.228', os.name: 'Windows 7', os.arch: 'x86', os.version: '6.1', java.version: '1.8.0_92'
Driver info: org.openqa.selenium.chrome.ChromeDriver
Capabilities [{applicationCacheEnabled=false, rotatable=false, mobileEmulationEnabled=false, networkConnectionEnabled=false, chrome={chromedriverVersion=2.29.461591 (62ebf098771772160f391d75e589dc567915b233), userDataDir=C:\Users\SUBHAJ~1\AppData\Local\Temp\scoped_dir11428_18372}, takesHeapSnapshot=true, pageLoadStrategy=normal, databaseEnabled=false, handlesAlerts=true, hasTouchScreen=false, version=60.0.3112.101, platform=XP, browserConnectionEnabled=false, nativeEvents=true, acceptSslCerts=true, locationContextEnabled=true, webStorageEnabled=true, browserName=chrome, takesScreenshot=true, javascriptEnabled=true, cssSelectorsEnabled=true, unexpectedAlertBehaviour=}]
Session ID: 34e53aef1e00fe6adb216b439ff4d6b5
18:28:32.820 INFO - Executing: [find elements: By.cssSelector: body])
18:28:55.691 INFO - Done: [find elements: By.cssSelector: body]
18:28:55.698 INFO - Executing: [find child elements: 0 [[ChromeDriver: chrome on XP (34e53aef1e00fe6adb216b439ff4d6b5)] -> css selector: body], By.xpath: //label[contains(.,'Enable')]/input])
18:28:55.746 INFO - Done: [find child elements: 0 [[ChromeDriver: chrome on XP (34e53aef1e00fe6adb216b439ff4d6b5)] -> css selector: body], By.xpath: //label[contains(.,'Enable')]/input]
18:28:55.762 INFO - Executing: [is displayed: 9 [[[[ChromeDriver: chrome on XP (34e53aef1e00fe6adb216b439ff4d6b5)] -> css selector: body]] -> xpath: //label[contains(.,'Enable')]/input]])
18:28:55.809 INFO - Done: [is displayed: 9 [[[[ChromeDriver: chrome on XP (34e53aef1e00fe6adb216b439ff4d6b5)] -> css selector: body]] -> xpath: //label[contains(.,'Enable')]/input]]
18:28:55.809 INFO - Executing: [find element: By.cssSelector: body])
18:28:55.824 INFO - Done: [find element: By.cssSelector: body]
18:28:55.840 INFO - Executing: [find child element: 0 [[ChromeDriver: chrome on XP (34e53aef1e00fe6adb216b439ff4d6b5)] -> css selector: body], By.xpath: //label[contains(.,'Enable')]/input])
18:28:55.887 INFO - Done: [find child element: 0 [[ChromeDriver: chrome on XP (34e53aef1e00fe6adb216b439ff4d6b5)] -> css selector: body], By.xpath: //label[contains(.,'Enable')]/input]
18:28:55.887 INFO - Executing: [click: 9 [[[[ChromeDriver: chrome on XP (34e53aef1e00fe6adb216b439ff4d6b5)] -> css selector: body]] -> xpath: //label[contains(.,'Enable')]/input]])
18:28:56.060 INFO - Done: [click: 9 [[[[ChromeDriver: chrome on XP (34e53aef1e00fe6adb216b439ff4d6b5)] -> css selector: body]] -> xpath: //label[contains(.,'Enable')]/input]]
18:28:56.079 INFO - Executing: [find elements: By.cssSelector: body])
18:28:56.115 INFO - Done: [find elements: By.cssSelector: body]
18:28:56.115 INFO - Executing: [find child elements: 0 [[ChromeDriver: chrome on XP (34e53aef1e00fe6adb216b439ff4d6b5)] -> css selector: body], By.xpath: //a[contains(text(),'Cancel')]/../button[@title='Save']])
18:28:56.161 INFO - Done: [find child elements: 0 [[ChromeDriver: chrome on XP (34e53aef1e00fe6adb216b439ff4d6b5)] -> css selector: body], By.xpath: //a[contains(text(),'Cancel')]/../button[@title='Save']]
18:28:56.161 INFO - Executing: [is displayed: 12 [[[[ChromeDriver: chrome on XP (34e53aef1e00fe6adb216b439ff4d6b5)] -> css selector: body]] -> xpath: //a[contains(text(),'Cancel')]/../button[@title='Save']]])
18:28:56.224 INFO - Done: [is displayed: 12 [[[[ChromeDriver: chrome on XP (34e53aef1e00fe6adb216b439ff4d6b5)] -> css selector: body]] -> xpath: //a[contains(text(),'Cancel')]/../button[@title='Save']]]
18:28:56.240 INFO - Executing: [find element: By.cssSelector: body])
18:28:56.255 INFO - Done: [find element: By.cssSelector: body]
18:28:56.271 INFO - Executing: [find child element: 0 [[ChromeDriver: chrome on XP (34e53aef1e00fe6adb216b439ff4d6b5)] -> css selector: body], By.xpath: //a[contains(text(),'Cancel')]/../button[@title='Save']])
18:28:56.333 INFO - Done: [find child element: 0 [[ChromeDriver: chrome on XP (34e53aef1e00fe6adb216b439ff4d6b5)] -> css selector: body], By.xpath: //a[contains(text(),'Cancel')]/../button[@title='Save']]
18:28:56.365 INFO - Executing: [click: 12 [[[[ChromeDriver: chrome on XP (34e53aef1e00fe6adb216b439ff4d6b5)] -> css selector: body]] -> xpath: //a[contains(text(),'Cancel')]/../button[@title='Save']]])
18:28:56.580 INFO - Done: [click: 12 [[[[ChromeDriver: chrome on XP (34e53aef1e00fe6adb216b439ff4d6b5)] -> css selector: body]] -> xpath: //a[contains(text(),'Cancel')]/../button[@title='Save']]]
18:28:56.604 INFO - Executing: [find elements: By.cssSelector: body])
18:28:56.662 INFO - Done: [find elements: By.cssSelector: body]
18:28:56.676 INFO - Executing: [find child elements: 0 [[ChromeDriver: chrome on XP (34e53aef1e00fe6adb216b439ff4d6b5)] -> css selector: body], By.xpath: //b[contains(text(),'Visibility Date')]])
18:29:26.757 INFO - Done: [find child elements: 0 [[ChromeDriver: chrome on XP (34e53aef1e00fe6adb216b439ff4d6b5)] -> css selector: body], By.xpath: //b[contains(text(),'Visibility Date')]]
18:29:26.773 INFO - Executing: [take screenshot])
18:29:27.202 INFO - Done: [take screenshot]
18:29:27.577 INFO - Executing: [delete session: 89d6ec24-85bb-4e01-9850-18247a939254])
18:29:30.937 INFO - Done: [delete session: 89d6ec24-85bb-4e01-9850-18247a939254]
